/COM,ANSYS RELEASE Release 16.2      BUILD 16.2      UP20150629       10:50:37

 *** ERROR ***                           CP =      20.202   TIME= 11:15:02
 Element type 1 cannot be deleted while elements of this type exist.     
 The ETDELE command is ignored.                                          

 *** ERROR ***                           CP =      20.374   TIME= 11:15:28
 Element type 1 cannot be deleted while elements of this type exist.     
 The ETDELE command is ignored.                                          

 *** ERROR ***                           CP =      20.577   TIME= 11:15:39
 Element type 1 cannot be deleted while elements of this type exist.     
 The ETDELE command is ignored.                                          

 *** ERROR ***                           CP =      21.154   TIME= 11:16:30
 This function requires defined volumes.                                 
  No volumes are currently defined.                                      

 *** WARNING ***                         CP =      23.135   TIME= 11:19:01
 The NODAL LOAD label of is not part of the currently active set.        
  The current NODAL LOAD set is: HEAT .                                  

 *** WARNING ***                         CP =      23.151   TIME= 11:19:02
 Specified forces from the previous F command were applied only to the   
 selected NODAL LOAD set.                                                

 *** WARNING ***                         CP =      24.399   TIME= 11:21:18
 This will be a single-frame restart analysis.  The .rdb and .ldhi files 
 are not available.                                                      

 *** WARNING ***                         CP =      25.054   TIME= 11:21:51
 Changing material properties (MP commands) between load steps is a      
 non-standard use of the program.  Exceptions to this rule (such as      
 changing contact friction coefficient) are specifically documented in   
 the User's Manual.                                                      
/COM,ANSYS RELEASE Release 16.2      BUILD 16.2      UP20150629       12:03:18
/COM,ANSYS RELEASE Release 16.2      BUILD 16.2      UP20150629       12:12:42

 *** WARNING ***                         CP =       6.630   TIME= 14:00:06
 Both solid model and finite element model boundary conditions have been 
 applied to this model.  As solid loads are transferred to the nodes or  
 elements, they can overwrite directly applied loads.                    
/COM,ANSYS RELEASE Release 16.2      BUILD 16.2      UP20150629       14:57:51

 *** WARNING ***                         CP =      15.741   TIME= 15:23:16
 The NODAL LOAD label of is not part of the currently active set.        
  The current NODAL LOAD set is: HEAT .                                  

 *** WARNING ***                         CP =      15.756   TIME= 15:23:16
 Specified forces from the previous F command were applied only to the   
 selected NODAL LOAD set.                                                

 *** WARNING ***                         CP =      15.865   TIME= 15:23:29
 The NODAL LOAD label of is not part of the currently active set.        
  The current NODAL LOAD set is: HEAT .                                  

 *** WARNING ***                         CP =      15.881   TIME= 15:23:29
 Specified forces from the previous F command were applied only to the   
 selected NODAL LOAD set.                                                

 *** WARNING ***                         CP =      21.918   TIME= 15:27:42
 The NODAL LOAD label of is not part of the currently active set.        
  The current NODAL LOAD set is: HEAT .                                  

 *** WARNING ***                         CP =      21.934   TIME= 15:27:42
 Specified forces from the previous F command were applied only to the   
 selected NODAL LOAD set.                                                
/COM,ANSYS RELEASE Release 16.2      BUILD 16.2      UP20150629       17:58:05

 *** WARNING ***                         CP =      13.151   TIME= 18:11:35
 The NODAL LOAD label of is not part of the currently active set.        
  The current NODAL LOAD set is: HEAT .                                  

 *** WARNING ***                         CP =      13.182   TIME= 18:11:35
 Specified forces from the previous F command were applied only to the   
 selected NODAL LOAD set.                                                

 *** WARNING ***                         CP =      27.862   TIME= 18:28:04
 The NODAL LOAD label of is not part of the currently active set.        
  The current NODAL LOAD set is: HEAT .                                  

 *** WARNING ***                         CP =      27.877   TIME= 18:28:05
 Specified forces from the previous F command were applied only to the   
 selected NODAL LOAD set.                                                
/COM,ANSYS RELEASE Release 16.2      BUILD 16.2      UP20150629       13:58:55

 *** WARNING ***                         CP =      25.007   TIME= 14:19:24
 Reissuing the PATH command with an existing path name and with nonzero  
 values for either nPts, nSets or nDiv will create a new path.           

 *** WARNING ***                         CP =      41.091   TIME= 14:26:05
 The EPLOT command cannot be executed.  The selected elements cannot be  
 displayed by PowerGraphics.  To correct this situation, select          
 different elements or turn off PowerGraphics.                           
