^D:\USERS\PM41\SASHOK\MCG\LABWORK1\LABWORK1\MAIN.CPP|D:\USERS\PM41\SASHOK\MCG\LABWORK1\LABWORK1\TDMA\TDMALGORITHM.CPP
D:\USERS\PM41\SASHOK\MCG\LABWORK1\LABWORK1\X64\DEBUG\VC140.PDB
D:\USERS\PM41\SASHOK\MCG\LABWORK1\LABWORK1\X64\DEBUG\VC140.IDB
D:\USERS\PM41\SASHOK\MCG\LABWORK1\LABWORK1\X64\DEBUG\TDMALGORITHM.OBJ
D:\USERS\PM41\SASHOK\MCG\LABWORK1\LABWORK1\X64\DEBUG\MAIN.OBJ
^D:\USERS\PM41\SASHOK\MCG\LABWORK1\LABWORK1\MAIN.CPP
D:\USERS\PM41\SASHOK\MCG\LABWORK1\LABWORK1\X64\DEBUG\VC140.PDB
D:\USERS\PM41\SASHOK\MCG\LABWORK1\LABWORK1\X64\DEBUG\VC140.IDB
D:\USERS\PM41\SASHOK\MCG\LABWORK1\LABWORK1\X64\DEBUG\MAIN.OBJ
^D:\USERS\PM41\SASHOK\MCG\LABWORK1\LABWORK1\TDMA\TDMALGORITHM.CPP
D:\USERS\PM41\SASHOK\MCG\LABWORK1\LABWORK1\X64\DEBUG\VC140.PDB
