reset

#set xlabel "Ось OX"
#set ylabel "Ось U(X)"

plot "Solution.txt" using 1:4 with lines

#plot "Solution.txt" using 1:2 with lines ti "Явная схема", \
#     "Solution.txt" using 1:3 with points ti "Неявная схема"