          DX         EXAC         TDMA         DIFF
0.000000000000e+00 3.000000000000e+02 3.000000000000e+02 0.000000000000e+00
4.000000000000e-03 2.930119838992e+02 2.930115032721e+02 4.806270824247e-04
8.000000000000e-03 2.860426772155e+02 2.860417194361e+02 9.577794133975e-04
1.200000000000e-02 2.791107426002e+02 2.791093145776e+02 1.428022672542e-03
1.600000000000e-02 2.722347495106e+02 2.722328615078e+02 1.888002783460e-03
2.000000000000e-02 2.654331284537e+02 2.654307939692e+02 2.334484489324e-03
2.400000000000e-02 2.587241262287e+02 2.587213618406e+02 2.764388099649e-03
2.800000000000e-02 2.521257624817e+02 2.521225876578e+02 3.174823869045e-03
3.200000000000e-02 2.456557878727e+02 2.456522247492e+02 3.563123488476e-03
3.600000000000e-02 2.393316441365e+02 2.393277172683e+02 3.926868247049e-03
4.000000000000e-02 2.331704262961e+02 2.331661623826e+02 4.263913477644e-03
4.400000000000e-02 2.271888472646e+02 2.271842748556e+02 4.572408966055e-03
4.800000000000e-02 2.214032050438e+02 2.213983542288e+02 4.850815090236e-03
5.200000000000e-02 2.158293527003e+02 2.158242547858e+02 5.097914526004e-03
5.600000000000e-02 2.104826712673e+02 2.104773584479e+02 5.312819443049e-03
6.000000000000e-02 2.053780456928e+02 2.053725507186e+02 5.494974192374e-03
6.400000000000e-02 2.005298439187e+02 2.005241997651e+02 5.644153570302e-03
6.800000000000e-02 1.959518991464e+02 1.959461386896e+02 5.760456815580e-03
7.200000000000e-02 1.916574953100e+02 1.916516510124e+02 5.844297570462e-03
7.600000000000e-02 1.876593557477e+02 1.876534593576e+02 5.896390100332e-03
8.000000000000e-02 1.839696350324e+02 1.839637173003e+02 5.917732122498e-03
8.400000000000e-02 1.805999138902e+02 1.805940043056e+02 5.909584643689e-03
8.800000000000e-02 1.775611971117e+02 1.775553236625e+02 5.873449242245e-03
9.200000000000e-02 1.748639143328e+02 1.748581032896e+02 5.811043260252e-03
9.600000000000e-02 1.725179235391e+02 1.725121992657e+02 5.724273387898e-03
1.000000000000e-01 1.705325171266e+02 1.705269019185e+02 5.615208126784e-03
1.040000000000e-01 1.689164303349e+02 1.689109442853e+02 5.486049615570e-03
1.080000000000e-01 1.676778518490e+02 1.676725127437e+02 5.339105287788e-03
1.120000000000e-01 1.668244363586e+02 1.668192595988e+02 5.176759805835e-03
1.160000000000e-01 1.663633188487e+02 1.663583174010e+02 5.001447681536e-03
1.200000000000e-01 1.663011303893e+02 1.662963147623e+02 4.815626956486e-03
1.240000000000e-01 1.666440151888e+02 1.666393934346e+02 4.621754264008e-03
1.280000000000e-01 1.673976486711e+02 1.673932264095e+02 4.422261547717e-03
1.320000000000e-01 1.685672563367e+02 1.685630368020e+02 4.219534651071e-03
1.360000000000e-01 1.701576331729e+02 1.701536172789e+02 4.015893939993e-03
1.400000000000e-01 1.721731633793e+02 1.721693498022e+02 3.813577057286e-03
1.440000000000e-01 1.746178401833e+02 1.746142254594e+02 3.614723855321e-03
1.480000000000e-01 1.774952855282e+02 1.774918641647e+02 3.421363498092e-03
1.520000000000e-01 1.808087694249e+02 1.808055340212e+02 3.235403668498e-03
1.560000000000e-01 1.845612287697e+02 1.845581701479e+02 3.058621778109e-03
1.600000000000e-01 1.887552854435e+02 1.887523927854e+02 2.892658033034e-03
1.640000000000e-01 1.933932635171e+02 1.933905245069e+02 2.739010175560e-03
1.680000000000e-01 1.984772054054e+02 1.984746063757e+02 2.599029701230e-03
1.720000000000e-01 2.040088868227e+02 2.040064129034e+02 2.473919328992e-03
1.760000000000e-01 2.099898304081e+02 2.099874656766e+02 2.364731497011e-03
1.800000000000e-01 2.164213179039e+02 2.164190455363e+02 2.272367655195e-03
1.840000000000e-01 2.233044007844e+02 2.233022032062e+02 2.197578134627e-03
1.880000000000e-01 2.306399092469e+02 2.306377682845e+02 2.140962387301e-03
1.920000000000e-01 2.384284594925e+02 2.384263565231e+02 2.102969413613e-03
1.960000000000e-01 2.466704592374e+02 2.466683753392e+02 2.083898225976e-03
2.000000000000e-01 2.553661114113e+02 2.553640275131e+02 2.083898226005e-03
