           X            W
0.000000000000e+00 3.000000000000e+02
2.000000000000e-03 2.964945938867e+02
4.000000000000e-03 2.929915149738e+02
6.000000000000e-03 2.894930890019e+02
8.000000000000e-03 2.860016387945e+02
1.000000000000e-02 2.825194828062e+02
1.200000000000e-02 2.790489336788e+02
1.400000000000e-02 2.755922968076e+02
1.600000000000e-02 2.721518689212e+02
1.800000000000e-02 2.687299366770e+02
2.000000000000e-02 2.653287752738e+02
2.200000000000e-02 2.619506470868e+02
2.400000000000e-02 2.585978003234e+02
2.600000000000e-02 2.552724677060e+02
2.800000000000e-02 2.519768651815e+02
3.000000000000e-02 2.487131906600e+02
3.200000000000e-02 2.454836227863e+02
3.400000000000e-02 2.422903197444e+02
3.600000000000e-02 2.391354180973e+02
3.800000000000e-02 2.360210316651e+02
4.000000000000e-02 2.329492504413e+02
4.200000000000e-02 2.299221395503e+02
4.400000000000e-02 2.269417382466e+02
4.600000000000e-02 2.240100589578e+02
4.800000000000e-02 2.211290863719e+02
5.000000000000e-02 2.183007765710e+02
5.200000000000e-02 2.155270562108e+02
5.400000000000e-02 2.128098217488e+02
5.600000000000e-02 2.101509387203e+02
5.800000000000e-02 2.075522410632e+02
6.000000000000e-02 2.050155304930e+02
6.200000000000e-02 2.025425759267e+02
6.400000000000e-02 2.001351129576e+02
6.600000000000e-02 1.977948433795e+02
6.800000000000e-02 1.955234347619e+02
7.000000000000e-02 1.933225200742e+02
7.200000000000e-02 1.911936973606e+02
7.400000000000e-02 1.891385294638e+02
7.600000000000e-02 1.871585437974e+02
7.800000000000e-02 1.852552321675e+02
8.000000000000e-02 1.834300506408e+02
8.200000000000e-02 1.816844194598e+02
8.400000000000e-02 1.800197230047e+02
8.600000000000e-02 1.784373097983e+02
8.800000000000e-02 1.769384925567e+02
9.000000000000e-02 1.755245482810e+02
9.200000000000e-02 1.741967183909e+02
9.400000000000e-02 1.729562088985e+02
9.600000000000e-02 1.718041906197e+02
9.800000000000e-02 1.707417994239e+02
1.000000000000e-01 1.697701365179e+02
1.020000000000e-01 1.688902687649e+02
1.040000000000e-01 1.681032290347e+02
1.060000000000e-01 1.674100165848e+02
1.080000000000e-01 1.668115974710e+02
1.100000000000e-01 1.663089049840e+02
1.120000000000e-01 1.659028401119e+02
1.140000000000e-01 1.655942720256e+02
1.160000000000e-01 1.653840385868e+02
1.180000000000e-01 1.652729468745e+02
1.200000000000e-01 1.652617737302e+02
1.220000000000e-01 1.653512663191e+02
1.240000000000e-01 1.655421427049e+02
1.260000000000e-01 1.658350924375e+02
1.280000000000e-01 1.662307771510e+02
1.300000000000e-01 1.667298311700e+02
1.320000000000e-01 1.673328621234e+02
1.340000000000e-01 1.680404515626e+02
1.360000000000e-01 1.688531555832e+02
1.380000000000e-01 1.697715054482e+02
1.400000000000e-01 1.707960082114e+02
1.420000000000e-01 1.719271473381e+02
1.440000000000e-01 1.731653833234e+02
1.460000000000e-01 1.745111543044e+02
1.480000000000e-01 1.759648766665e+02
1.500000000000e-01 1.775269456416e+02
1.520000000000e-01 1.791977358959e+02
1.540000000000e-01 1.809776021079e+02
1.560000000000e-01 1.828668795329e+02
1.580000000000e-01 1.848658845549e+02
1.600000000000e-01 1.869749152224e+02
1.620000000000e-01 1.891942517694e+02
1.640000000000e-01 1.915241571180e+02
1.660000000000e-01 1.939648773632e+02
1.680000000000e-01 1.965166422380e+02
1.700000000000e-01 1.991796655585e+02
1.720000000000e-01 2.019541456470e+02
1.740000000000e-01 2.048402657334e+02
1.760000000000e-01 2.078381943335e+02
1.780000000000e-01 2.109480856029e+02
1.800000000000e-01 2.141700796675e+02
1.820000000000e-01 2.175043029275e+02
1.840000000000e-01 2.209508683364e+02
1.860000000000e-01 2.245098756540e+02
1.880000000000e-01 2.281814116711e+02
1.900000000000e-01 2.319655504089e+02
1.920000000000e-01 2.358623532892e+02
1.940000000000e-01 2.398718692773e+02
1.960000000000e-01 2.439941349967e+02
1.980000000000e-01 2.482291748152e+02
2.000000000000e-01 2.525770009021e+02
